{
  "tenantid": "d7cb89e7-e0c6-44c5-8ac2-53b553372019",
  "client_id": "78bc69ac-ba12-4642-8f71-76fda7b3b0f8",
  "client_secret": "HSxPqNaOpM2OSDAxkkvargE5+wQFyWB+zASH4o2bLuk=",
  "subscription_id": "2cfbde47-c1bb-4830-9fdc-814143d4c3ea",
  "resourceGroup": "EndorDev",
  "appName": "EndorWebDev-test",
  "hostNameDNSTarget": "endorwebdev-test.azurewebsites.net",
  "sslPassword": "Cyriousapp9432",
  "location": "Central US"
}
